[
    {"server_command": ["@SERVER@", "--http",
                 "--x509keyfile", "tests/serverX509Key.pem",
                 "--x509certfile", "tests/serverX509Cert.pem",
                 "--debug=3",
                 "--priority=@PRIORITY@",
                 "--disable-client-cert", "--port=@PORT@"],
     "tests" : [
         {"name" : "test-aes-gcm-nonces.py" },
         {"name" : "test-atypical-padding.py" },
         {"name" : "test-bleichenbacher-workaround.py" },
         {"name" : "test-clienthello-md5.py"},
         {"name" : "test-client-compatibility.py"},
         {"name" : "test-client-compatibility.py"},
         {"name" : "test-client-compatibility.py"},
         {"name" : "test-client-compatibility.py"},
         {"name" : "test-conversation.py"},
         {"name" : "test-cve-2016-2107.py"},
         {"name" : "test-dhe-rsa-key-exchange.py"},
         {"name" : "test-dhe-rsa-key-exchange-signatures.py"},
         {"name" : "test-dhe-rsa-key-exchange-with-bad-messages.py"},
         {"name" : "test-early-application-data.py"},
         {"name" : "test-ecdhe-rsa-key-exchange.py"},
         {"name" : "test-ecdhe-rsa-key-exchange-with-bad-messages.py"},
         {"name" : "test-empty-extensions.py"},
         {"name" : "test-export-ciphers-rejected.py",
          "comment" : "we negotiate AES even in SSL3.0",
          "arguments" : ["--ssl3"] },
         {"name" : "test-extensions.py"},
         {"name" : "test-extended-master-secret-extension.py",
          "comment" : "gnutls does not allow switching from EMS to no EMS",
          "arguments" : ["-e", "renegotiate without EMS in session with EMS",
                         "-e", "EMS with session resume without extension"],
          "comment" : "FIXME: This script doesn't accept -e",
          "exp_pass" : false},
         {"name" : "test-fallback-scsv.py"},
         {"name" : "test-fuzzed-ciphertext.py"},
         {"name" : "test-fuzzed-finished.py"},
         {"name" : "test-fuzzed-MAC.py"},
         {"name" : "test-fuzzed-padding.py"},
         {"name" : "test-hello-request-by-client.py"},
         {"name" : "test-interleaved-application-data-and-fragmented-handshakes-in-renegotiation.py",
          "comment" : "gnutls doesn't support interleaved data with handshake",
          "exp_pass" : false},
         {"name" : "test-interleaved-application-data-in-renegotiation.py",
          "comment" : "gnutls doesn't support interleaved data with handshake",
          "exp_pass" : false},
         {"name" : "test-invalid-cipher-suites.py"},
         {"name" : "test-invalid-client-hello.py"},
         {"name" : "test-invalid-client-hello-w-record-overflow.py"},
         {"name" : "test-invalid-compression-methods.py"},
         {"name" : "test-invalid-content-type.py"},
         {"name" : "test-invalid-rsa-key-exchange-messages.py"},
         {"name" : "test-invalid-session-id.py"},
         {"name" : "test-invalid-version.py"},
         {"name" : "test-large-number-of-extensions.py"},
         {"name" : "test-message-duplication.py"},
         {"name" : "test-message-skipping.py"},
         {"name" : "test-ocsp-stapling.py",
          "comment" : "test requires OCSP setup",
          "exp_pass" : false},
         {"name" : "test-openssl-3712.py",
          "comment" : "gnutls doesn't support interleaved data with handshake",
          "exp_pass" : false},
         {"name" : "test-record-layer-fragmentation.py",
          "comment" : "FIXME: these need investigation",
          "arguments" : ["-e", "non fragmented, over fragmentation limit: 65535 fragment - 16332B extension",
                         "-e", "small, maximum fragmentation: 1 fragment - 20B extension",
                         "-e", "medium, maximum fragmentation: 1 fragment - 1024B extension"]},
         {"name" : "test-sessionID-resumption.py"},
         {"name" : "test-sig-algs.py"},
         {"name" : "test-signature-algorithms.py",
          "comment" : "gnutls doesn't tolerate that much",
          "arguments" : ["-e", "tolerance max (32764) number of methods"]
         },
         {"name" : "test-sslv2-connection.py"},
         {"name" : "test-sslv2-force-cipher-3des.py"},
         {"name" : "test-sslv2-force-cipher-non3des.py"},
         {"name" : "test-sslv2-force-cipher.py"},
         {"name" : "test-sslv2-force-export-cipher.py"},
         {"name" : "test-sslv2hello-protocol.py"},
         {"name" : "test-SSLv3-padding.py",
                   "comment" : "we accept zero filled padding in SSLv3",
                   "exp_pass" : false},
         {"name" : "test-TLSv1_2-rejected-without-TLSv1_2.py"},
         {"name" : "test-truncating-of-client-hello.py" },
         {"name" : "test-truncating-of-finished.py"},
         {"name" : "test-truncating-of-kRSA-client-key-exchange.py"},
         {"name" : "test-unsupported-cuve-fallback.py"},
         {"name" : "test-version-numbers.py"},
         {"name" : "test-zero-length-data.py"}
     ]
    }
]
